{
  "resultCode": 0,
  "resultMsg": "产品信息获取成功",
  "resultData":
  {
    "productId":"1",
    "productName":"90天 短期理财",
    "productType":0,
    "holdPeriod":"90天",
    "yearIncomeRate":5.5,
    "expectedIncomeFormula":"function sumEarn(num){return(0.06*num*90/((365||365)*100));}",
    "bankIncomeRate":0.05,
    "labelImgUrl":"",
    "canPurchase":true,
    "purchaseBtnTip":"",
    "productDetailUrl":"http://www.163.com",
    "minPurchaseAmount":100,
    "maxPurchaseAmount":10000,
    "minIntervalAmount":100,
    "mearchantId":"kskkdfjsakdfjak",
    "countDown": 3
  }
}
